{
  "builders": [
    {
      "type": "virtualbox-iso",
      "virtualbox_version_file": ".vbox_version",
      "headless": false,
      "vm_name": "packer-centos-6.6-x86_64",

      "guest_os_type": "RedHat_64",
      "hard_drive_interface": "sata",
      "disk_size": 40960,

      "iso_url": "http://mirror.nexcess.net/CentOS/6/isos/x86_64/CentOS-6.6-x86_64-minimal.iso",
      "iso_checksum": "eb3c8be6ab668e6d83a118323a789e6c",
      "iso_checksum_type": "md5",

      "boot_command": [
        "<tab> text ks=http://{{ .HTTPIP }}:{{ .HTTPPort }}/centos-6.6/ks.cfg<enter><wait>"
      ],
      "boot_wait": "12s",

      "http_directory": "http",
      "guest_additions_path": "VBoxGuestAdditions_{{.Version}}.iso",

      "ssh_username": "vagrant",
      "ssh_password": "vagrant",
      "ssh_port": 22,
      "ssh_wait_timeout": "60m",

      "vboxmanage": [
        ["modifyvm", "{{.Name}}", "--memory", "1024"],
        ["modifyvm", "{{.Name}}", "--cpus", "1"]
      ],

      "shutdown_command": "echo 'vagrant' | sudo -S shutdown -P now"
    }
  ],
  "post-processors": [
    {
      "output": "build/centos-6.6-x86_64.box",
      "type": "vagrant"
    }
  ],
  "provisioners": [
    {
      "type": "shell",
      "execute_command": "echo 'vagrant' | {{.Vars}} sudo -S -E bash '{{.Path}}'",
      "scripts": [
        "scripts/fix-slow-dns.sh",
        "scripts/vagrant.sh",
        "scripts/sshd.sh",
        "scripts/vboxguest.sh",
        "scripts/cleanup.sh",
        "scripts/compact.sh"
      ]
    }
  ]
}
